{
    "Ain": {
        "listes": ["PRENEZ LE POUVOIR", "RENAISSANCE", "EUROPE ÉCOLOGIE", "UNION DROITE-CENTRE", "ENVIE D'EUROPE"],
        "inscrits": 417781,
        "scores": [24.31, 22.36, 13.81, 10.64, 5.12],
        "voix": [48406, 44525, 27494, 21179, 10199],
        "colors": ["#003D86", "#EAC73B", "#00BF30", "#006AC6", "#FF7A81"]
    },
    "Aisne": {
        "listes": ["PRENEZ LE POUVOIR", "RENAISSANCE", "EUROPE ÉCOLOGIE", "UNION DROITE-CENTRE", "LA FRANCE INSOUMISE"],
        "inscrits": 371723,
        "scores": [39.88, 15.65, 7.83, 7.19, 6.28],
        "voix": [74089, 29069, 14555, 13349, 11663],
        "colors": ["#003D86", "#EAC73B", "#00BF30", "#006AC6", "#DC1447"]
    },
    "Allier": {
        "listes": ["PRENEZ LE POUVOIR", "RENAISSANCE", "UNION DROITE-CENTRE", "EUROPE ÉCOLOGIE", "LA FRANCE INSOUMISE", "ENVIE D'EUROPE"],
        "inscrits": 248389,
        "scores": [25.44, 19.55, 11.13, 9.05, 6.71, 5.73],
        "voix": [32042, 24629, 14023, 11403, 8452, 7215],
        "colors": ["#003D86", "#EAC73B", "#006AC6", "#00BF30", "#DC1447", "#FF7A81"]
    },
    "Alpes-de-Haute-Provence": {
        "listes": ["PRENEZ LE POUVOIR", "RENAISSANCE", "EUROPE ÉCOLOGIE", "LA FRANCE INSOUMISE", "UNION DROITE-CENTRE", "ENVIE D'EUROPE"],
        "inscrits": 126239,
        "scores": [27.16, 19.94, 13.19, 8.08, 6.51, 5.11],
        "voix": [18008, 13222, 8750, 5359, 4314, 3390],
        "colors": ["#003D86", "#EAC73B", "#00BF30", "#DC1447", "#006AC6", "#FF7A81"]
    },
    "Hautes-Alpes": {
        "listes": ["PRENEZ LE POUVOIR", "RENAISSANCE", "EUROPE ÉCOLOGIE", "UNION DROITE-CENTRE", "LA FRANCE INSOUMISE", "ENVIE D'EUROPE"],
        "inscrits": 109697,
        "scores": [23.49, 20.91, 16.07, 7.68, 6.73, 5.79],
        "voix": [13507, 12022, 9239, 4415, 3871, 3331],
        "colors": ["#003D86", "#EAC73B", "#00BF30", "#006AC6", "#DC1447", "#FF7A81"]
    },
    "Alpes-Maritimes": {
        "listes": ["PRENEZ LE POUVOIR", "RENAISSANCE", "EUROPE ÉCOLOGIE", "UNION DROITE-CENTRE"],
        "inscrits": 755808,
        "scores": [29.81, 21.59, 11.9, 11.44],
        "voix": [108551, 78647, 43340, 41657],
        "colors": ["#003D86", "#EAC73B", "#00BF30", "#006AC6"]
    },
    "Ardèche": {
        "listes": ["PRENEZ LE POUVOIR", "RENAISSANCE", "EUROPE ÉCOLOGIE", "UNION DROITE-CENTRE", "LA FRANCE INSOUMISE", "ENVIE D'EUROPE"],
        "inscrits": 249119,
        "scores": [23.49, 19.01, 13.87, 10.35, 7.35, 6.03],
        "voix": [30694, 24843, 18125, 13525, 9604, 7884],
        "colors": ["#003D86", "#EAC73B", "#00BF30", "#006AC6", "#DC1447", "#FF7A81"]
    },
    "Ardennes": {
        "listes": ["PRENEZ LE POUVOIR", "RENAISSANCE", "EUROPE ÉCOLOGIE", "UNION DROITE-CENTRE", "LA FRANCE INSOUMISE"],
        "inscrits": 191612,
        "scores": [35.92, 16.88, 8.43, 8.14, 6.51],
        "voix": [33207, 15604, 7789, 7528, 6017],
        "colors": ["#003D86", "#EAC73B", "#00BF30", "#006AC6", "#DC1447"]
    },
    "Ariège": {
        "listes": ["PRENEZ LE POUVOIR", "RENAISSANCE", "EUROPE ÉCOLOGIE", "LA FRANCE INSOUMISE", "ENVIE D'EUROPE", "UNION DROITE-CENTRE"],
        "inscrits": 117515,
        "scores": [24.71, 16.72, 12.37, 10.75, 9.75, 5.2],
        "voix": [15567, 10529, 7791, 6772, 6141, 3273],
        "colors": ["#003D86", "#EAC73B", "#00BF30", "#DC1447", "#FF7A81", "#006AC6"]
    },
    "Aube": {
        "listes": ["PRENEZ LE POUVOIR", "RENAISSANCE", "UNION DROITE-CENTRE", "EUROPE ÉCOLOGIE", "DEBOUT LA FRANCE"],
        "inscrits": 202403,
        "scores": [33.43, 18.35, 10.81, 8.74, 5.25],
        "voix": [34267, 18803, 11076, 8955, 5380],
        "colors": ["#003D86", "#EAC73B", "#006AC6", "#00BF30", "#0084BF"]
    },
    "Aude": {
        "listes": ["PRENEZ LE POUVOIR", "RENAISSANCE", "EUROPE ÉCOLOGIE", "ENVIE D'EUROPE", "LA FRANCE INSOUMISE", "UNION DROITE-CENTRE"],
        "inscrits": 273664,
        "scores": [31.24, 16.96, 10.15, 9.54, 7.81, 5.89],
        "voix": [44997, 24430, 14618, 13745, 11244, 8478],
        "colors": ["#003D86", "#EAC73B", "#00BF30", "#FF7A81", "#DC1447", "#006AC6"]
    },
    "Aveyron": {
        "listes": ["RENAISSANCE", "PRENEZ LE POUVOIR", "EUROPE ÉCOLOGIE", "UNION DROITE-CENTRE", "ENVIE D'EUROPE", "LA FRANCE INSOUMISE"],
        "inscrits": 217280,
        "scores": [24, 19.08, 12.49, 9.71, 7.6, 7.2],
        "voix": [27751, 22071, 14445, 11226, 8793, 8324],
        "colors": ["#EAC73B", "#003D86", "#00BF30", "#006AC6", "#FF7A81", "#DC1447"]
    },
    "Bouches-du-Rhône": {
        "listes": ["PRENEZ LE POUVOIR", "RENAISSANCE", "EUROPE ÉCOLOGIE", "UNION DROITE-CENTRE", "LA FRANCE INSOUMISE"],
        "inscrits": 1365345,
        "scores": [29.46, 19.7, 12.82, 7.66, 7.03],
        "voix": [188056, 125754, 81860, 48907, 44873],
        "colors": ["#003D86", "#EAC73B", "#00BF30", "#006AC6", "#DC1447"]
    },
    "Calvados": {
        "listes": ["PRENEZ LE POUVOIR", "RENAISSANCE", "EUROPE ÉCOLOGIE", "UNION DROITE-CENTRE", "ENVIE D'EUROPE", "LA FRANCE INSOUMISE"],
        "inscrits": 496210,
        "scores": [23.02, 22.61, 13.01, 8.2, 6.51, 5.73],
        "voix": [60139, 59070, 33996, 21423, 17006, 14958],
        "colors": ["#003D86", "#EAC73B", "#00BF30", "#006AC6", "#FF7A81", "#DC1447"]
    },
    "Cantal": {
        "listes": ["RENAISSANCE", "PRENEZ LE POUVOIR", "UNION DROITE-CENTRE", "EUROPE ÉCOLOGIE", "ENVIE D'EUROPE", "LA FRANCE INSOUMISE"],
        "inscrits": 114700,
        "scores": [21.88, 20.88, 16.78, 9.12, 6.63, 5.76],
        "voix": [12303, 11738, 9434, 5129, 3728, 3238],
        "colors": ["#EAC73B", "#003D86", "#006AC6", "#00BF30", "#FF7A81", "#DC1447"]
    },
    "Charente": {
        "listes": ["PRENEZ LE POUVOIR", "RENAISSANCE", "EUROPE ÉCOLOGIE", "LA FRANCE INSOUMISE", "UNION DROITE-CENTRE", "ENVIE D'EUROPE"],
        "inscrits": 257530,
        "scores": [25.56, 21.48, 12.23, 7.61, 7.17, 6.56],
        "voix": [32520, 27332, 15559, 9686, 9123, 8344],
        "colors": ["#003D86", "#EAC73B", "#00BF30", "#DC1447", "#006AC6", "#FF7A81"]
    },
    "Charente-Maritime": {
        "listes": ["PRENEZ LE POUVOIR", "RENAISSANCE", "EUROPE ÉCOLOGIE", "UNION DROITE-CENTRE", "LA FRANCE INSOUMISE", "ENVIE D'EUROPE"],
        "inscrits": 493475,
        "scores": [25.26, 22.62, 13, 7.68, 6.6, 6.35],
        "voix": [64431, 57695, 33147, 19580, 16835, 16196],
        "colors": ["#003D86", "#EAC73B", "#00BF30", "#006AC6", "#DC1447", "#FF7A81"]
    },
    "Cher": {
        "listes": ["PRENEZ LE POUVOIR", "RENAISSANCE", "EUROPE ÉCOLOGIE", "UNION DROITE-CENTRE", "LA FRANCE INSOUMISE", "ENVIE D'EUROPE"],
        "inscrits": 225123,
        "scores": [27.43, 20.23, 9.84, 8.48, 6.85, 5.41],
        "voix": [30128, 22221, 10803, 9317, 7521, 5936],
        "colors": ["#003D86", "#EAC73B", "#00BF30", "#006AC6", "#DC1447", "#FF7A81"]
    },
    "Corrèze": {
        "listes": ["PRENEZ LE POUVOIR", "RENAISSANCE", "EUROPE ÉCOLOGIE", "UNION DROITE-CENTRE", "ENVIE D'EUROPE", "LA FRANCE INSOUMISE"],
        "inscrits": 183950,
        "scores": [21.35, 19.56, 10.91, 9.82, 9.03, 7.9],
        "voix": [20364, 18651, 10404, 9368, 8611, 7532],
        "colors": ["#003D86", "#EAC73B", "#00BF30", "#006AC6", "#FF7A81", "#DC1447"]
    },
    "Corse-du-sud": {
        "listes": ["PRENEZ LE POUVOIR", "EUROPE ÉCOLOGIE", "RENAISSANCE", "UNION DROITE-CENTRE"],
        "inscrits": 109111,
        "scores": [29.75, 21.11, 15.89, 11.05],
        "voix": [11821, 8390, 6313, 4391],
        "colors": ["#003D86", "#00BF30", "#EAC73B", "#006AC6"]
    },
    "Haute-Corse": {
        "listes": ["PRENEZ LE POUVOIR", "EUROPE ÉCOLOGIE", "RENAISSANCE", "UNION DROITE-CENTRE"],
        "inscrits": 124225,
        "scores": [26.52, 22.86, 14.31, 13.13],
        "voix": [12242, 10554, 6608, 6060],
        "colors": ["#003D86", "#00BF30", "#EAC73B", "#006AC6"]
    },
    "Côte-d'or": {
        "listes": ["PRENEZ LE POUVOIR", "RENAISSANCE", "EUROPE ÉCOLOGIE", "UNION DROITE-CENTRE", "ENVIE D'EUROPE", "LA FRANCE INSOUMISE"],
        "inscrits": 356915,
        "scores": [23.91, 22.46, 12.84, 9.4, 5.93, 5.89],
        "voix": [44405, 41710, 23845, 17452, 11003, 10944],
        "colors": ["#003D86", "#EAC73B", "#00BF30", "#006AC6", "#FF7A81", "#DC1447"]
    },
    "Côtes-d'Armor": {
        "listes": ["RENAISSANCE", "PRENEZ LE POUVOIR", "EUROPE ÉCOLOGIE", "UNION DROITE-CENTRE", "ENVIE D'EUROPE", "LA FRANCE INSOUMISE", "LISTE CITOYENNE"],
        "inscrits": 455125,
        "scores": [24.21, 19.06, 14.36, 8.31, 7.16, 6.23, 5.11],
        "voix": [59525, 46874, 35297, 20423, 17603, 15321, 12563],
        "colors": ["#EAC73B", "#003D86", "#00BF30", "#006AC6", "#FF7A81", "#DC1447", "#DC0056"]
    },
    "Creuse": {
        "listes": ["PRENEZ LE POUVOIR", "RENAISSANCE", "EUROPE ÉCOLOGIE", "UNION DROITE-CENTRE", "LA FRANCE INSOUMISE", "ENVIE D'EUROPE"],
        "inscrits": 92094,
        "scores": [24.38, 18.43, 9.83, 9.68, 8.89, 6.99],
        "voix": [11041, 8348, 4451, 4383, 4026, 3164],
        "colors": ["#003D86", "#EAC73B", "#00BF30", "#006AC6", "#DC1447", "#FF7A81"]
    },
    "Dordogne": {
        "listes": ["PRENEZ LE POUVOIR", "RENAISSANCE", "EUROPE ÉCOLOGIE", "LA FRANCE INSOUMISE", "ENVIE D'EUROPE", "UNION DROITE-CENTRE"],
        "inscrits": 314086,
        "scores": [25.3, 19.34, 11.42, 8.6, 7.48, 7.08],
        "voix": [43022, 32898, 19430, 14631, 12718, 12040],
        "colors": ["#003D86", "#EAC73B", "#00BF30", "#DC1447", "#FF7A81", "#006AC6"]
    },
    "Doubs": {
        "listes": ["PRENEZ LE POUVOIR", "RENAISSANCE", "EUROPE ÉCOLOGIE", "UNION DROITE-CENTRE", "LA FRANCE INSOUMISE", "ENVIE D'EUROPE"],
        "inscrits": 362977,
        "scores": [22.54, 21.59, 13.84, 10.38, 6.22, 5.78],
        "voix": [40321, 38615, 24750, 18565, 11121, 10341],
        "colors": ["#003D86", "#EAC73B", "#00BF30", "#006AC6", "#DC1447", "#FF7A81"]
    },
    "Drôme": {
        "listes": ["PRENEZ LE POUVOIR", "RENAISSANCE", "EUROPE ÉCOLOGIE", "UNION DROITE-CENTRE", "LA FRANCE INSOUMISE", "ENVIE D'EUROPE"],
        "inscrits": 368695,
        "scores": [23.4, 20.52, 15.83, 9.05, 6.48, 5.7],
        "voix": [43529, 38188, 29454, 16836, 12049, 10605],
        "colors": ["#003D86", "#EAC73B", "#00BF30", "#006AC6", "#DC1447", "#FF7A81"]
    },
    "Eure": {
        "listes": ["PRENEZ LE POUVOIR", "RENAISSANCE", "EUROPE ÉCOLOGIE", "UNION DROITE-CENTRE", "LA FRANCE INSOUMISE"],
        "inscrits": 424550,
        "scores": [31.64, 19, 10.34, 7.58, 5.91],
        "voix": [68485, 41135, 22389, 16413, 12801],
        "colors": ["#003D86", "#EAC73B", "#00BF30", "#006AC6", "#DC1447"]
    },
    "Eure-et-Loir": {
        "listes": ["PRENEZ LE POUVOIR", "RENAISSANCE", "EUROPE ÉCOLOGIE", "UNION DROITE-CENTRE", "LA FRANCE INSOUMISE", "ENVIE D'EUROPE", "DEBOUT LA FRANCE"],
        "inscrits": 298313,
        "scores": [27.88, 20.56, 10.09, 9.75, 5.3, 5.05, 5.04],
        "voix": [40712, 30020, 14729, 14231, 7744, 7380, 7358],
        "colors": ["#003D86", "#EAC73B", "#00BF30", "#006AC6", "#DC1447", "#FF7A81", "#0084BF"]
    },
    "Finistère": {
        "listes": ["RENAISSANCE", "PRENEZ LE POUVOIR", "EUROPE ÉCOLOGIE", "ENVIE D'EUROPE", "UNION DROITE-CENTRE", "LA FRANCE INSOUMISE", "LISTE CITOYENNE"],
        "inscrits": 687705,
        "scores": [25.18, 16.48, 16.47, 8.17, 7.67, 6.14, 6.04],
        "voix": [89902, 58835, 58810, 29161, 27398, 21913, 21559],
        "colors": ["#EAC73B", "#003D86", "#00BF30", "#FF7A81", "#006AC6", "#DC1447", "#DC0056"]
    },
    "Gard": {
        "listes": ["PRENEZ LE POUVOIR", "RENAISSANCE", "EUROPE ÉCOLOGIE", "UNION DROITE-CENTRE", "LA FRANCE INSOUMISE", "ENVIE D'EUROPE"],
        "inscrits": 538122,
        "scores": [32.11, 18.51, 11.32, 7.22, 7.1, 5.4],
        "voix": [86747, 50017, 30575, 19502, 19181, 14600],
        "colors": ["#003D86", "#EAC73B", "#00BF30", "#006AC6", "#DC1447", "#FF7A81"]
    },
    "Haute-Garonne": {
        "listes": ["RENAISSANCE", "PRENEZ LE POUVOIR", "EUROPE ÉCOLOGIE", "ENVIE D'EUROPE", "LA FRANCE INSOUMISE", "UNION DROITE-CENTRE"],
        "inscrits": 886139,
        "scores": [22.9, 18.71, 16.81, 9.02, 7.34, 6.45],
        "voix": [109568, 89523, 80449, 43135, 35116, 30877],
        "colors": ["#EAC73B", "#003D86", "#00BF30", "#FF7A81", "#DC1447", "#006AC6"]
    },
    "Gers": {
        "listes": ["PRENEZ LE POUVOIR", "RENAISSANCE", "EUROPE ÉCOLOGIE", "ENVIE D'EUROPE", "UNION DROITE-CENTRE", "LA FRANCE INSOUMISE"],
        "inscrits": 145082,
        "scores": [22.65, 20.73, 11.99, 9.54, 7.89, 6.59],
        "voix": [17885, 16372, 9469, 7531, 6233, 5201],
        "colors": ["#003D86", "#EAC73B", "#00BF30", "#FF7A81", "#006AC6", "#DC1447"]
    },
    "Gironde": {
        "listes": ["RENAISSANCE", "PRENEZ LE POUVOIR", "EUROPE ÉCOLOGIE", "ENVIE D'EUROPE", "LA FRANCE INSOUMISE", "UNION DROITE-CENTRE"],
        "inscrits": 1093496,
        "scores": [23.36, 21.18, 15.3, 7.79, 6.87, 6.81],
        "voix": [132369, 120031, 86684, 44135, 38921, 38588],
        "colors": ["#EAC73B", "#003D86", "#00BF30", "#FF7A81", "#DC1447", "#006AC6"]
    },
    "Hérault": {
        "listes": ["PRENEZ LE POUVOIR", "RENAISSANCE", "EUROPE ÉCOLOGIE", "LA FRANCE INSOUMISE", "UNION DROITE-CENTRE", "ENVIE D'EUROPE"],
        "inscrits": 807059,
        "scores": [28.58, 19.72, 14.21, 7.46, 6.61, 6.49],
        "voix": [116950, 80687, 58140, 30543, 27037, 26566],
        "colors": ["#003D86", "#EAC73B", "#00BF30", "#DC1447", "#006AC6", "#FF7A81"]
    },
    "Ille-et-Vilaine": {
        "listes": ["RENAISSANCE", "EUROPE ÉCOLOGIE", "PRENEZ LE POUVOIR", "ENVIE D'EUROPE", "UNION DROITE-CENTRE", "LA FRANCE INSOUMISE"],
        "inscrits": 731807,
        "scores": [26.97, 18.06, 14.74, 8.09, 7.48, 5.07],
        "voix": [102334, 68529, 55919, 30709, 28394, 19239],
        "colors": ["#EAC73B", "#00BF30", "#003D86", "#FF7A81", "#006AC6", "#DC1447"]
    },
    "Indre": {
        "listes": ["PRENEZ LE POUVOIR", "RENAISSANCE", "EUROPE ÉCOLOGIE", "UNION DROITE-CENTRE", "LA FRANCE INSOUMISE", "ENVIE D'EUROPE"],
        "inscrits": 167551,
        "scores": [28.42, 19.23, 9.85, 9.03, 6.83, 5.91],
        "voix": [23654, 16009, 8197, 7519, 5688, 4922],
        "colors": ["#003D86", "#EAC73B", "#00BF30", "#006AC6", "#DC1447", "#FF7A81"]
    },
    "Indre-et-Loire": {
        "listes": ["RENAISSANCE", "PRENEZ LE POUVOIR", "EUROPE ÉCOLOGIE", "UNION DROITE-CENTRE", "ENVIE D'EUROPE", "LA FRANCE INSOUMISE"],
        "inscrits": 427456,
        "scores": [23.34, 20.79, 14.13, 8.97, 6.67, 5.82],
        "voix": [50150, 44652, 30357, 19267, 14324, 12511],
        "colors": ["#EAC73B", "#003D86", "#00BF30", "#006AC6", "#FF7A81", "#DC1447"]
    },
    "Isère": {
        "listes": ["RENAISSANCE", "PRENEZ LE POUVOIR", "EUROPE ÉCOLOGIE", "UNION DROITE-CENTRE", "ENVIE D'EUROPE", "LA FRANCE INSOUMISE"],
        "inscrits": 854183,
        "scores": [22.31, 21.9, 16.17, 7.94, 6.63, 6.09],
        "voix": [94393, 92631, 68413, 33599, 28048, 25782],
        "colors": ["#EAC73B", "#003D86", "#00BF30", "#006AC6", "#FF7A81", "#DC1447"]
    },
    "Jura": {
        "listes": ["PRENEZ LE POUVOIR", "RENAISSANCE", "EUROPE ÉCOLOGIE", "UNION DROITE-CENTRE", "LA FRANCE INSOUMISE", "ENVIE D'EUROPE"],
        "inscrits": 186503,
        "scores": [24.55, 20.29, 13.01, 9.24, 7.31, 5.19],
        "voix": [23784, 19662, 12604, 8955, 7084, 5025],
        "colors": ["#003D86", "#EAC73B", "#00BF30", "#006AC6", "#DC1447", "#FF7A81"]
    },
    "Landes": {
        "listes": ["RENAISSANCE", "PRENEZ LE POUVOIR", "EUROPE ÉCOLOGIE", "ENVIE D'EUROPE", "UNION DROITE-CENTRE", "LA FRANCE INSOUMISE"],
        "inscrits": 312391,
        "scores": [22.95, 21.29, 10.8, 10.47, 6.95, 6.88],
        "voix": [37517, 34812, 17655, 17126, 11368, 11254],
        "colors": ["#EAC73B", "#003D86", "#00BF30", "#FF7A81", "#006AC6", "#DC1447"]
    },
    "Loir-et-Cher": {
        "listes": ["PRENEZ LE POUVOIR", "RENAISSANCE", "EUROPE ÉCOLOGIE", "UNION DROITE-CENTRE", "ENVIE D'EUROPE", "DEBOUT LA FRANCE", "LA FRANCE INSOUMISE"],
        "inscrits": 241935,
        "scores": [27.15, 20.48, 11.16, 9.09, 5.62, 5.33, 5.3],
        "voix": [33918, 25583, 13948, 11359, 7027, 6664, 6617],
        "colors": ["#003D86", "#EAC73B", "#00BF30", "#006AC6", "#FF7A81", "#0084BF", "#DC1447"]
    },
    "Loire": {
        "listes": ["PRENEZ LE POUVOIR", "RENAISSANCE", "EUROPE ÉCOLOGIE", "UNION DROITE-CENTRE", "LA FRANCE INSOUMISE", "ENVIE D'EUROPE"],
        "inscrits": 506148,
        "scores": [24.6, 21.51, 12.61, 10.54, 5.88, 5.28],
        "voix": [59952, 52433, 30722, 25699, 14325, 12872],
        "colors": ["#003D86", "#EAC73B", "#00BF30", "#006AC6", "#DC1447", "#FF7A81"]
    },
    "Haute-Loire": {
        "listes": ["PRENEZ LE POUVOIR", "UNION DROITE-CENTRE", "RENAISSANCE", "EUROPE ÉCOLOGIE", "LA FRANCE INSOUMISE"],
        "inscrits": 176688,
        "scores": [22.48, 19.56, 16.96, 11.17, 5.99],
        "voix": [20515, 17855, 15479, 10194, 5469],
        "colors": ["#003D86", "#006AC6", "#EAC73B", "#00BF30", "#DC1447"]
    },
    "Loire-Atlantique": {
        "listes": ["RENAISSANCE", "EUROPE ÉCOLOGIE", "PRENEZ LE POUVOIR", "ENVIE D'EUROPE", "UNION DROITE-CENTRE", "LA FRANCE INSOUMISE"],
        "inscrits": 1004262,
        "scores": [25.63, 18.92, 14.75, 8.15, 7.66, 5.89],
        "voix": [128788, 95070, 74118, 40974, 38481, 29615],
        "colors": ["#EAC73B", "#00BF30", "#003D86", "#FF7A81", "#006AC6", "#DC1447"]
    },
    "Loiret": {
        "listes": ["PRENEZ LE POUVOIR", "RENAISSANCE", "EUROPE ÉCOLOGIE", "UNION DROITE-CENTRE", "ENVIE D'EUROPE"],
        "inscrits": 449305,
        "scores": [25.26, 22.63, 11.45, 9.27, 5.57],
        "voix": [56495, 50621, 25606, 20739, 12467],
        "colors": ["#003D86", "#EAC73B", "#00BF30", "#006AC6", "#FF7A81"]
    },
    "Lot": {
        "listes": ["RENAISSANCE", "PRENEZ LE POUVOIR", "EUROPE ÉCOLOGIE", "ENVIE D'EUROPE", "LA FRANCE INSOUMISE", "UNION DROITE-CENTRE"],
        "inscrits": 137035,
        "scores": [22.15, 19.43, 13.54, 9.04, 8.57, 7.48],
        "voix": [16747, 14692, 10234, 6831, 6481, 5656],
        "colors": ["#EAC73B", "#003D86", "#00BF30", "#FF7A81", "#DC1447", "#006AC6"]
    },
    "Lot-et-Garonne": {
        "listes": ["PRENEZ LE POUVOIR", "RENAISSANCE", "EUROPE ÉCOLOGIE", "UNION DROITE-CENTRE", "LA FRANCE INSOUMISE", "ENVIE D'EUROPE"],
        "inscrits": 240109,
        "scores": [29.45, 19.22, 10.31, 7.38, 6.71, 6.11],
        "voix": [36323, 23707, 12722, 9108, 8271, 7542],
        "colors": ["#003D86", "#EAC73B", "#00BF30", "#006AC6", "#DC1447", "#FF7A81"]
    },
    "Lozère": {
        "listes": ["PRENEZ LE POUVOIR", "RENAISSANCE", "UNION DROITE-CENTRE", "EUROPE ÉCOLOGIE", "ENVIE D'EUROPE", "LA FRANCE INSOUMISE"],
        "inscrits": 59213,
        "scores": [22.03, 19.02, 13.29, 12.13, 7.23, 6.81],
        "voix": [6918, 5973, 4174, 3809, 2270, 2137],
        "colors": ["#003D86", "#EAC73B", "#006AC6", "#00BF30", "#FF7A81", "#DC1447"]
    },
    "Maine-et-Loire": {
        "listes": ["RENAISSANCE", "PRENEZ LE POUVOIR", "EUROPE ÉCOLOGIE", "UNION DROITE-CENTRE", "ENVIE D'EUROPE"],
        "inscrits": 570021,
        "scores": [26.85, 18.32, 15.46, 8.92, 6.53],
        "voix": [75076, 51213, 43236, 24927, 18260],
        "colors": ["#EAC73B", "#003D86", "#00BF30", "#006AC6", "#FF7A81"]
    },
    "Manche": {
        "listes": ["RENAISSANCE", "PRENEZ LE POUVOIR", "EUROPE ÉCOLOGIE", "UNION DROITE-CENTRE", "ENVIE D'EUROPE", "LA FRANCE INSOUMISE"],
        "inscrits": 377462,
        "scores": [23.61, 23.3, 11.64, 8.76, 6.87, 5.41],
        "voix": [43876, 43304, 21629, 16281, 12760, 10052],
        "colors": ["#EAC73B", "#003D86", "#00BF30", "#006AC6", "#FF7A81", "#DC1447"]
    },
    "Marne": {
        "listes": ["PRENEZ LE POUVOIR", "RENAISSANCE", "UNION DROITE-CENTRE", "EUROPE ÉCOLOGIE"],
        "inscrits": 375977,
        "scores": [30.24, 21.37, 9.85, 9.83],
        "voix": [55454, 39185, 18065, 18026],
        "colors": ["#003D86", "#EAC73B", "#006AC6", "#00BF30"]
    },
    "Haute-Marne": {
        "listes": ["PRENEZ LE POUVOIR", "RENAISSANCE", "UNION DROITE-CENTRE", "EUROPE ÉCOLOGIE", "LA FRANCE INSOUMISE"],
        "inscrits": 131342,
        "scores": [36.12, 16.9, 9.22, 7.8, 5.32],
        "voix": [23908, 11184, 6104, 5163, 3519],
        "colors": ["#003D86", "#EAC73B", "#006AC6", "#00BF30", "#DC1447"]
    },
    "Mayenne": {
        "listes": ["RENAISSANCE", "PRENEZ LE POUVOIR", "EUROPE ÉCOLOGIE", "UNION DROITE-CENTRE", "ENVIE D'EUROPE", "LES EUROPÉENS"],
        "inscrits": 221985,
        "scores": [25.88, 19.6, 13.12, 9.33, 6.75, 5.38],
        "voix": [27116, 20538, 13747, 9773, 7068, 5637],
        "colors": ["#EAC73B", "#003D86", "#00BF30", "#006AC6", "#FF7A81", "#00FFFE"]
    },
    "Meurthe-et-Moselle": {
        "listes": ["PRENEZ LE POUVOIR", "RENAISSANCE", "EUROPE ÉCOLOGIE", "UNION DROITE-CENTRE", "LA FRANCE INSOUMISE", "ENVIE D'EUROPE"],
        "inscrits": 489123,
        "scores": [26.42, 20.1, 12.35, 7.38, 6.58, 6.38],
        "voix": [62694, 47701, 29311, 17501, 15624, 15130],
        "colors": ["#003D86", "#EAC73B", "#00BF30", "#006AC6", "#DC1447", "#FF7A81"]
    },
    "Meuse": {
        "listes": ["PRENEZ LE POUVOIR", "RENAISSANCE", "EUROPE ÉCOLOGIE", "UNION DROITE-CENTRE", "LA FRANCE INSOUMISE"],
        "inscrits": 135433,
        "scores": [34.09, 18.67, 9.17, 7.81, 5.38],
        "voix": [23652, 12950, 6359, 5416, 3734],
        "colors": ["#003D86", "#EAC73B", "#00BF30", "#006AC6", "#DC1447"]
    },
    "Morbihan": {
        "listes": ["RENAISSANCE", "PRENEZ LE POUVOIR", "EUROPE ÉCOLOGIE", "UNION DROITE-CENTRE", "ENVIE D'EUROPE"],
        "inscrits": 581182,
        "scores": [25.69, 20.13, 15.08, 8.09, 6.52],
        "voix": [78195, 61286, 45909, 24624, 19845],
        "colors": ["#EAC73B", "#003D86", "#00BF30", "#006AC6", "#FF7A81"]
    },
    "Moselle": {
        "listes": ["PRENEZ LE POUVOIR", "RENAISSANCE", "EUROPE ÉCOLOGIE", "UNION DROITE-CENTRE", "LA FRANCE INSOUMISE", "ENVIE D'EUROPE", "DEBOUT LA FRANCE"],
        "inscrits": 748232,
        "scores": [29.12, 19.77, 11.32, 7.19, 5.45, 5.33, 5.07],
        "voix": [98519, 66895, 38286, 24328, 18443, 18046, 17139],
        "colors": ["#003D86", "#EAC73B", "#00BF30", "#006AC6", "#DC1447", "#FF7A81", "#0084BF"]
    },
    "Nièvre": {
        "listes": ["PRENEZ LE POUVOIR", "RENAISSANCE", "EUROPE ÉCOLOGIE", "UNION DROITE-CENTRE", "LA FRANCE INSOUMISE", "ENVIE D'EUROPE"],
        "inscrits": 155790,
        "scores": [28.04, 19.45, 8.91, 7.08, 6.97, 6.42],
        "voix": [22138, 15354, 7036, 5588, 5506, 5071],
        "colors": ["#003D86", "#EAC73B", "#00BF30", "#006AC6", "#DC1447", "#FF7A81"]
    },
    "Nord": {
        "listes": ["PRENEZ LE POUVOIR", "RENAISSANCE", "EUROPE ÉCOLOGIE", "LA FRANCE INSOUMISE", "UNION DROITE-CENTRE", "ENVIE D'EUROPE"],
        "inscrits": 1794697,
        "scores": [29.56, 19.11, 12.06, 7.37, 6.26, 5.08],
        "voix": [252192, 163048, 102918, 62905, 53391, 43326],
        "colors": ["#003D86", "#EAC73B", "#00BF30", "#DC1447", "#006AC6", "#FF7A81"]
    },
    "Oise": {
        "listes": ["PRENEZ LE POUVOIR", "RENAISSANCE", "EUROPE ÉCOLOGIE", "UNION DROITE-CENTRE", "LA FRANCE INSOUMISE"],
        "inscrits": 557880,
        "scores": [32.93, 18.3, 9.93, 8.01, 5.7],
        "voix": [90358, 50214, 27247, 21980, 15636],
        "colors": ["#003D86", "#EAC73B", "#00BF30", "#006AC6", "#DC1447"]
    },
    "Orne": {
        "listes": ["PRENEZ LE POUVOIR", "RENAISSANCE", "UNION DROITE-CENTRE", "EUROPE ÉCOLOGIE", "ENVIE D'EUROPE", "LA FRANCE INSOUMISE", "DEBOUT LA FRANCE"],
        "inscrits": 204897,
        "scores": [26.83, 21.19, 10.51, 10.43, 5.16, 5.07, 5.06],
        "voix": [28395, 22428, 11121, 11036, 5459, 5362, 5353],
        "colors": ["#003D86", "#EAC73B", "#006AC6", "#00BF30", "#FF7A81", "#DC1447", "#0084BF"]
    },
    "Pas-de-Calais": {
        "listes": ["PRENEZ LE POUVOIR", "RENAISSANCE", "EUROPE ÉCOLOGIE", "LA FRANCE INSOUMISE", "UNION DROITE-CENTRE"],
        "inscrits": 1081683,
        "scores": [38.07, 16.05, 9.46, 6.92, 5.95],
        "voix": [205324, 86541, 51000, 37347, 32096],
        "colors": ["#003D86", "#EAC73B", "#00BF30", "#DC1447", "#006AC6"]
    },
    "Puy-de-Dôme": {
        "listes": ["RENAISSANCE", "PRENEZ LE POUVOIR", "EUROPE ÉCOLOGIE", "UNION DROITE-CENTRE", "ENVIE D'EUROPE", "LA FRANCE INSOUMISE"],
        "inscrits": 458206,
        "scores": [21.18, 19.22, 12.55, 9.27, 7.72, 6.87],
        "voix": [50032, 45391, 29635, 21897, 18224, 16221],
        "colors": ["#EAC73B", "#003D86", "#00BF30", "#006AC6", "#FF7A81", "#DC1447"]
    },
    "Pyrénées-Atlantiques": {
        "listes": ["RENAISSANCE", "PRENEZ LE POUVOIR", "EUROPE ÉCOLOGIE", "ENVIE D'EUROPE", "UNION DROITE-CENTRE", "LA FRANCE INSOUMISE"],
        "inscrits": 502630,
        "scores": [25.17, 16.96, 15.47, 8.81, 8.06, 6.22],
        "voix": [64000, 43115, 39320, 22405, 20479, 15821],
        "colors": ["#EAC73B", "#003D86", "#00BF30", "#FF7A81", "#006AC6", "#DC1447"]
    },
    "Hautes-Pyrénées": {
        "listes": ["PRENEZ LE POUVOIR", "RENAISSANCE", "EUROPE ÉCOLOGIE", "ENVIE D'EUROPE", "LA FRANCE INSOUMISE", "UNION DROITE-CENTRE"],
        "inscrits": 175894,
        "scores": [22.18, 21.12, 11.78, 8.6, 8.2, 6.36],
        "voix": [20124, 19157, 10687, 7805, 7443, 5769],
        "colors": ["#003D86", "#EAC73B", "#00BF30", "#FF7A81", "#DC1447", "#006AC6"]
    },
    "Pyrénées-Orientales": {
        "listes": ["PRENEZ LE POUVOIR", "RENAISSANCE", "EUROPE ÉCOLOGIE", "UNION DROITE-CENTRE", "LA FRANCE INSOUMISE", "ENVIE D'EUROPE"],
        "inscrits": 349819,
        "scores": [33.14, 16.95, 10.7, 7.05, 6.98, 5.63],
        "voix": [58645, 30002, 18940, 12474, 12356, 9958],
        "colors": ["#003D86", "#EAC73B", "#00BF30", "#006AC6", "#DC1447", "#FF7A81"]
    },
    "Bas-Rhin": {
        "listes": ["RENAISSANCE", "PRENEZ LE POUVOIR", "EUROPE ÉCOLOGIE", "UNION DROITE-CENTRE"],
        "inscrits": 769523,
        "scores": [23.96, 22.71, 15.41, 9.57],
        "voix": [90688, 85979, 58313, 36215],
        "colors": ["#EAC73B", "#003D86", "#00BF30", "#006AC6"]
    },
    "Haut-Rhin": {
        "listes": ["PRENEZ LE POUVOIR", "RENAISSANCE", "EUROPE ÉCOLOGIE", "UNION DROITE-CENTRE", "DEBOUT LA FRANCE"],
        "inscrits": 529108,
        "scores": [25.84, 21.58, 13.97, 8.49, 5.42],
        "voix": [64195, 53623, 34700, 21094, 13456],
        "colors": ["#003D86", "#EAC73B", "#00BF30", "#006AC6", "#0084BF"]
    },
    "Rhône": {
        "listes": ["RENAISSANCE", "EUROPE ÉCOLOGIE", "PRENEZ LE POUVOIR", "UNION DROITE-CENTRE", "ENVIE D'EUROPE", "LA FRANCE INSOUMISE"],
        "inscrits": 1121594,
        "scores": [26.25, 17.21, 16.98, 10.71, 6.06, 5.29],
        "voix": [147444, 96695, 95394, 60155, 34065, 29691],
        "colors": ["#EAC73B", "#00BF30", "#003D86", "#006AC6", "#FF7A81", "#DC1447"]
    },
    "Haute-Saône": {
        "listes": ["PRENEZ LE POUVOIR", "RENAISSANCE", "EUROPE ÉCOLOGIE", "UNION DROITE-CENTRE", "LA FRANCE INSOUMISE", "ENVIE D'EUROPE"],
        "inscrits": 176604,
        "scores": [32.8, 16.57, 10.06, 9.14, 6.03, 5.12],
        "voix": [30157, 15232, 9252, 8406, 5541, 4706],
        "colors": ["#003D86", "#EAC73B", "#00BF30", "#006AC6", "#DC1447", "#FF7A81"]
    },
    "Saône-et-Loire": {
        "listes": ["PRENEZ LE POUVOIR", "RENAISSANCE", "UNION DROITE-CENTRE", "EUROPE ÉCOLOGIE", "LA FRANCE INSOUMISE", "ENVIE D'EUROPE"],
        "inscrits": 401906,
        "scores": [25.3, 21.27, 11.54, 10.51, 6.09, 5.96],
        "voix": [49019, 41211, 22366, 20372, 11792, 11554],
        "colors": ["#003D86", "#EAC73B", "#006AC6", "#00BF30", "#DC1447", "#FF7A81"]
    },
    "Sarthe": {
        "listes": ["PRENEZ LE POUVOIR", "RENAISSANCE", "EUROPE ÉCOLOGIE", "UNION DROITE-CENTRE", "ENVIE D'EUROPE", "LA FRANCE INSOUMISE"],
        "inscrits": 405220,
        "scores": [26.28, 18.99, 12.51, 9.09, 6.39, 6.13],
        "voix": [51390, 37131, 24464, 17779, 12501, 11981],
        "colors": ["#003D86", "#EAC73B", "#00BF30", "#006AC6", "#FF7A81", "#DC1447"]
    },
    "Savoie": {
        "listes": ["RENAISSANCE", "PRENEZ LE POUVOIR", "EUROPE ÉCOLOGIE", "UNION DROITE-CENTRE", "ENVIE D'EUROPE", "LA FRANCE INSOUMISE"],
        "inscrits": 308564,
        "scores": [22.31, 21.14, 16.34, 9.91, 5.89, 5.47],
        "voix": [34277, 32473, 25107, 15223, 9053, 8405],
        "colors": ["#EAC73B", "#003D86", "#00BF30", "#006AC6", "#FF7A81", "#DC1447"]
    },
    "Haute-Savoie": {
        "listes": ["RENAISSANCE", "EUROPE ÉCOLOGIE", "PRENEZ LE POUVOIR", "UNION DROITE-CENTRE", "ENVIE D'EUROPE"],
        "inscrits": 537932,
        "scores": [25.32, 18.13, 18.12, 10.56, 5.18],
        "voix": [64664, 46306, 46277, 26975, 13236],
        "colors": ["#EAC73B", "#00BF30", "#003D86", "#006AC6", "#FF7A81"]
    },
    "Paris": {
        "listes": ["RENAISSANCE", "EUROPE ÉCOLOGIE", "UNION DROITE-CENTRE", "ENVIE D'EUROPE", "PRENEZ LE POUVOIR", "LA FRANCE INSOUMISE"],
        "inscrits": 1306831,
        "scores": [32.92, 19.94, 10.18, 8.17, 7.23, 5.31],
        "voix": [244918, 148377, 75722, 60814, 53829, 39515],
        "colors": ["#EAC73B", "#00BF30", "#006AC6", "#FF7A81", "#003D86", "#DC1447"]
    },
    "Seine-Maritime": {
        "listes": ["PRENEZ LE POUVOIR", "RENAISSANCE", "EUROPE ÉCOLOGIE", "LA FRANCE INSOUMISE", "UNION DROITE-CENTRE", "ENVIE D'EUROPE"],
        "inscrits": 867228,
        "scores": [27.61, 19.72, 10.92, 7.35, 6.8, 6],
        "voix": [122058, 87194, 48275, 32492, 30042, 26536],
        "colors": ["#003D86", "#EAC73B", "#00BF30", "#DC1447", "#006AC6", "#FF7A81"]
    },
    "Seine-et-Marne": {
        "listes": ["PRENEZ LE POUVOIR", "RENAISSANCE", "EUROPE ÉCOLOGIE", "UNION DROITE-CENTRE", "LA FRANCE INSOUMISE", "ENVIE D'EUROPE"],
        "inscrits": 878868,
        "scores": [24.4, 20.5, 12.47, 7.87, 6.49, 5.56],
        "voix": [98286, 82572, 50232, 31713, 26124, 22401],
        "colors": ["#003D86", "#EAC73B", "#00BF30", "#006AC6", "#DC1447", "#FF7A81"]
    },
    "Yvelines": {
        "listes": ["RENAISSANCE", "EUROPE ÉCOLOGIE", "PRENEZ LE POUVOIR", "UNION DROITE-CENTRE", "ENVIE D'EUROPE"],
        "inscrits": 951478,
        "scores": [29.96, 14.71, 14.36, 12.45, 5.46],
        "voix": [149669, 73511, 71757, 62209, 27278],
        "colors": ["#EAC73B", "#00BF30", "#003D86", "#006AC6", "#FF7A81"]
    },
    "Deux-Sèvres": {
        "listes": ["RENAISSANCE", "PRENEZ LE POUVOIR", "EUROPE ÉCOLOGIE", "UNION DROITE-CENTRE", "ENVIE D'EUROPE", "LA FRANCE INSOUMISE"],
        "inscrits": 270571,
        "scores": [23.66, 20.64, 14.09, 7.52, 7.04, 6.16],
        "voix": [31365, 27355, 18677, 9973, 9334, 8168],
        "colors": ["#EAC73B", "#003D86", "#00BF30", "#006AC6", "#FF7A81", "#DC1447"]
    },
    "Somme": {
        "listes": ["PRENEZ LE POUVOIR", "RENAISSANCE", "LA FRANCE INSOUMISE", "EUROPE ÉCOLOGIE", "UNION DROITE-CENTRE"],
        "inscrits": 403621,
        "scores": [33.37, 19.69, 8.51, 8.06, 6.58],
        "voix": [69408, 40958, 17709, 16771, 13682],
        "colors": ["#003D86", "#EAC73B", "#DC1447", "#00BF30", "#006AC6"]
    },
    "Tarn": {
        "listes": ["PRENEZ LE POUVOIR", "RENAISSANCE", "EUROPE ÉCOLOGIE", "UNION DROITE-CENTRE", "ENVIE D'EUROPE", "LA FRANCE INSOUMISE"],
        "inscrits": 291344,
        "scores": [25.65, 19.69, 12.07, 7.78, 7.44, 7.1],
        "voix": [40141, 30817, 18894, 12181, 11651, 11113],
        "colors": ["#003D86", "#EAC73B", "#00BF30", "#006AC6", "#FF7A81", "#DC1447"]
    },
    "Tarn-et-Garonne": {
        "listes": ["PRENEZ LE POUVOIR", "RENAISSANCE", "EUROPE ÉCOLOGIE", "UNION DROITE-CENTRE", "ENVIE D'EUROPE", "LA FRANCE INSOUMISE"],
        "inscrits": 184080,
        "scores": [29.74, 18.36, 11.13, 7.34, 7.12, 6.46],
        "voix": [28461, 17570, 10652, 7029, 6815, 6182],
        "colors": ["#003D86", "#EAC73B", "#00BF30", "#006AC6", "#FF7A81", "#DC1447"]
    },
    "Var": {
        "listes": ["PRENEZ LE POUVOIR", "RENAISSANCE", "UNION DROITE-CENTRE", "EUROPE ÉCOLOGIE"],
        "inscrits": 789717,
        "scores": [33.54, 20.89, 9.61, 8.47],
        "voix": [129700, 80803, 37159, 32766],
        "colors": ["#003D86", "#EAC73B", "#006AC6", "#00BF30"]
    },
    "Vaucluse": {
        "listes": ["PRENEZ LE POUVOIR", "RENAISSANCE", "EUROPE ÉCOLOGIE", "UNION DROITE-CENTRE", "LA FRANCE INSOUMISE"],
        "inscrits": 401793,
        "scores": [32.5, 19.25, 12.36, 7.24, 5.83],
        "voix": [64147, 37989, 24386, 14286, 11513],
        "colors": ["#003D86", "#EAC73B", "#00BF30", "#006AC6", "#DC1447"]
    },
    "Vendée": {
        "listes": ["RENAISSANCE", "PRENEZ LE POUVOIR", "EUROPE ÉCOLOGIE", "UNION DROITE-CENTRE", "ENVIE D'EUROPE"],
        "inscrits": 521697,
        "scores": [26.81, 21.3, 12.53, 10.09, 5.59],
        "voix": [69568, 55289, 32510, 26178, 14505],
        "colors": ["#EAC73B", "#003D86", "#00BF30", "#006AC6", "#FF7A81"]
    },
    "Vienne": {
        "listes": ["PRENEZ LE POUVOIR", "RENAISSANCE", "EUROPE ÉCOLOGIE", "UNION DROITE-CENTRE", "ENVIE D'EUROPE", "LA FRANCE INSOUMISE"],
        "inscrits": 301831,
        "scores": [22.58, 21.79, 14.24, 7.35, 7.3, 6.58],
        "voix": [34369, 33164, 21681, 11187, 11118, 10013],
        "colors": ["#003D86", "#EAC73B", "#00BF30", "#006AC6", "#FF7A81", "#DC1447"]
    },
    "Haute-Vienne": {
        "listes": ["PRENEZ LE POUVOIR", "RENAISSANCE", "EUROPE ÉCOLOGIE", "ENVIE D'EUROPE", "UNION DROITE-CENTRE", "LA FRANCE INSOUMISE"],
        "inscrits": 262928,
        "scores": [21.37, 20.76, 11.51, 8.79, 8.23, 8.14],
        "voix": [29379, 28546, 15819, 12081, 11308, 11184],
        "colors": ["#003D86", "#EAC73B", "#00BF30", "#FF7A81", "#006AC6", "#DC1447"]
    },
    "Vosges": {
        "listes": ["PRENEZ LE POUVOIR", "RENAISSANCE", "EUROPE ÉCOLOGIE", "UNION DROITE-CENTRE", "DEBOUT LA FRANCE", "LA FRANCE INSOUMISE"],
        "inscrits": 280326,
        "scores": [30.3, 18.64, 10.79, 8.74, 5.53, 5.4],
        "voix": [42672, 26253, 15191, 12314, 7786, 7601],
        "colors": ["#003D86", "#EAC73B", "#00BF30", "#006AC6", "#0084BF", "#DC1447"]
    },
    "Yonne": {
        "listes": ["PRENEZ LE POUVOIR", "RENAISSANCE", "EUROPE ÉCOLOGIE", "UNION DROITE-CENTRE", "LA FRANCE INSOUMISE", "DEBOUT LA FRANCE"],
        "inscrits": 237031,
        "scores": [31.85, 18.29, 9.83, 8.67, 6, 5.05],
        "voix": [38355, 22028, 11841, 10443, 7221, 6082],
        "colors": ["#003D86", "#EAC73B", "#00BF30", "#006AC6", "#DC1447", "#0084BF"]
    },
    "Territoire de Belfort": {
        "listes": ["PRENEZ LE POUVOIR", "RENAISSANCE", "EUROPE ÉCOLOGIE", "UNION DROITE-CENTRE", "LA FRANCE INSOUMISE"],
        "inscrits": 93327,
        "scores": [27.11, 19.08, 12.22, 9.21, 6.59],
        "voix": [12450, 8764, 5610, 4231, 3028],
        "colors": ["#003D86", "#EAC73B", "#00BF30", "#006AC6", "#DC1447"]
    },
    "Essonne": {
        "listes": ["RENAISSANCE", "PRENEZ LE POUVOIR", "EUROPE ÉCOLOGIE", "UNION DROITE-CENTRE", "LA FRANCE INSOUMISE", "ENVIE D'EUROPE", "DEBOUT LA FRANCE"],
        "inscrits": 793188,
        "scores": [23.67, 17.58, 15.22, 7.28, 6.47, 6.4, 5.47],
        "voix": [90937, 67515, 58467, 27980, 24839, 24591, 21016],
        "colors": ["#EAC73B", "#003D86", "#00BF30", "#006AC6", "#DC1447", "#FF7A81", "#0084BF"]
    },
    "Hauts-de-Seine": {
        "listes": ["RENAISSANCE", "EUROPE ÉCOLOGIE", "UNION DROITE-CENTRE", "PRENEZ LE POUVOIR", "ENVIE D'EUROPE"],
        "inscrits": 979624,
        "scores": [33.57, 15.68, 11.84, 9.45, 5.98],
        "voix": [176869, 82636, 62403, 49793, 31505],
        "colors": ["#EAC73B", "#00BF30", "#006AC6", "#003D86", "#FF7A81"]
    },
    "Seine-Saint-Denis": {
        "listes": ["RENAISSANCE", "PRENEZ LE POUVOIR", "EUROPE ÉCOLOGIE", "LA FRANCE INSOUMISE", "ENVIE D'EUROPE", "POUR L'EUROPE DES GENS", "LISTE CITOYENNE", "UNION DROITE-CENTRE"],
        "inscrits": 768747,
        "scores": [17.74, 16.27, 14.72, 11.04, 7, 5.83, 5.4, 5.02],
        "voix": [51605, 47347, 42828, 32119, 20361, 16948, 15714, 14608],
        "colors": ["#EAC73B", "#003D86", "#00BF30", "#DC1447", "#FF7A81", "#EF001A", "#DC0056", "#006AC6"]
    },
    "Val-de-Marne": {
        "listes": ["RENAISSANCE", "EUROPE ÉCOLOGIE", "PRENEZ LE POUVOIR", "UNION DROITE-CENTRE", "LA FRANCE INSOUMISE", "ENVIE D'EUROPE"],
        "inscrits": 786147,
        "scores": [25.6, 16.78, 13.31, 7.82, 7.18, 6.9],
        "voix": [95777, 62783, 49799, 29279, 26854, 25813],
        "colors": ["#EAC73B", "#00BF30", "#003D86", "#006AC6", "#DC1447", "#FF7A81"]
    },
    "Val-d'Oise": {
        "listes": ["RENAISSANCE", "PRENEZ LE POUVOIR", "EUROPE ÉCOLOGIE", "UNION DROITE-CENTRE", "LA FRANCE INSOUMISE", "ENVIE D'EUROPE"],
        "inscrits": 721691,
        "scores": [22.86, 19.53, 13.75, 7.75, 7.47, 6.02],
        "voix": [71713, 61263, 43134, 24324, 23424, 18877],
        "colors": ["#EAC73B", "#003D86", "#00BF30", "#006AC6", "#DC1447", "#FF7A81"]
    },
    "Guadeloupe": {
        "listes": ["PRENEZ LE POUVOIR", "RENAISSANCE", "LA FRANCE INSOUMISE", "EUROPE ÉCOLOGIE", "ENVIE D'EUROPE", "UNION DROITE-CENTRE"],
        "inscrits": 307795,
        "scores": [23.71, 18.07, 12.96, 10.67, 9.01, 5.67],
        "voix": [9072, 6913, 4957, 4081, 3445, 2169],
        "colors": ["#003D86", "#EAC73B", "#DC1447", "#00BF30", "#FF7A81", "#006AC6"]
    },
    "Martinique": {
        "listes": ["RENAISSANCE", "PRENEZ LE POUVOIR", "LA FRANCE INSOUMISE", "EUROPE ÉCOLOGIE", "ENVIE D'EUROPE", "UNION DROITE-CENTRE", "LUTTE OUVRIÈRE", "LISTE CITOYENNE"],
        "inscrits": 301572,
        "scores": [18.24, 16.31, 12.95, 10.96, 8.51, 7.32, 6.69, 5.04],
        "voix": [7179, 6418, 5099, 4315, 3350, 2880, 2635, 1982],
        "colors": ["#EAC73B", "#003D86", "#DC1447", "#00BF30", "#FF7A81", "#006AC6", "#CA0016", "#DC0056"]
    },
    "Guyane": {
        "listes": ["PRENEZ LE POUVOIR", "EUROPE ÉCOLOGIE", "RENAISSANCE", "LA FRANCE INSOUMISE", "ENVIE D'EUROPE"],
        "inscrits": 93052,
        "scores": [27.47, 18.63, 16.64, 13.56, 5.77],
        "voix": [3165, 2146, 1917, 1562, 665],
        "colors": ["#003D86", "#00BF30", "#EAC73B", "#DC1447", "#FF7A81"]
    },
    "La Réunion": {
        "listes": ["PRENEZ LE POUVOIR", "LA FRANCE INSOUMISE", "RENAISSANCE", "EUROPE ÉCOLOGIE", "UNION DROITE-CENTRE", "ENVIE D'EUROPE"],
        "inscrits": 644089,
        "scores": [31.24, 19.03, 10.5, 8.58, 5.98, 5.61],
        "voix": [56143, 34192, 18869, 15412, 10745, 10086],
        "colors": ["#003D86", "#DC1447", "#EAC73B", "#00BF30", "#006AC6", "#FF7A81"]
    },
    "Mayotte": {
        "listes": ["PRENEZ LE POUVOIR", "UNION DROITE-CENTRE", "LA FRANCE INSOUMISE", "RENAISSANCE"],
        "inscrits": 78601,
        "scores": [46.12, 17, 9.17, 8.87],
        "voix": [9717, 3582, 1932, 1868],
        "colors": ["#003D86", "#006AC6", "#DC1447", "#EAC73B"]
    },
    "Nouvelle-Calédonie": {
        "listes": ["PRENEZ LE POUVOIR", "RENAISSANCE", "UNION DROITE-CENTRE", "EUROPE ÉCOLOGIE", "URGENCE ÉCOLOGIE"],
        "inscrits": 209832,
        "scores": [27.3, 17.62, 13.87, 12.56, 6.79],
        "voix": [10641, 6865, 5405, 4894, 2645],
        "colors": ["#003D86", "#EAC73B", "#006AC6", "#00BF30", "#008446"]
    },
    "Polynesie Francaise": {
        "listes": ["RENAISSANCE", "PRENEZ LE POUVOIR", "EUROPE ÉCOLOGIE", "UNION DROITE-CENTRE"],
        "inscrits": 195598,
        "scores": [43.37, 16.99, 11.08, 9.49],
        "voix": [15757, 6173, 4025, 3447],
        "colors": ["#EAC73B", "#003D86", "#00BF30", "#006AC6"]
    },
    "Saint Pierre et Miquelon": {
        "listes": ["PRENEZ LE POUVOIR", "RENAISSANCE", "EUROPE ÉCOLOGIE", "LA FRANCE INSOUMISE", "ENVIE D'EUROPE", "UNION DROITE-CENTRE", "LISTE CITOYENNE"],
        "inscrits": 4958,
        "scores": [24.02, 18.27, 14.5, 11.9, 10.97, 6.98, 5.37],
        "voix": [313, 238, 189, 155, 143, 91, 70],
        "colors": ["#003D86", "#EAC73B", "#00BF30", "#DC1447", "#FF7A81", "#006AC6", "#DC0056"]
    },
    "Wallis et Futuna": {
        "listes": ["RENAISSANCE", "UNION DROITE-CENTRE", "PRENEZ LE POUVOIR", "LA FRANCE INSOUMISE", "LES EUROPÉENS"],
        "inscrits": 8762,
        "scores": [37.13, 19.2, 13.33, 7.69, 5.47],
        "voix": [1106, 572, 397, 229, 163],
        "colors": ["#EAC73B", "#006AC6", "#003D86", "#DC1447", "#00FFFE"]
    },
    "Saint-Martin/Saint-Barthélemy": {
        "listes": ["PRENEZ LE POUVOIR", "RENAISSANCE", "EUROPE ÉCOLOGIE", "UNION DROITE-CENTRE", "LA FRANCE INSOUMISE", "ENVIE D'EUROPE"],
        "inscrits": 23327,
        "scores": [28.38, 20.15, 13.06, 11.81, 6.13, 5.01],
        "voix": [889, 631, 409, 370, 192, 157],
        "colors": ["#003D86", "#EAC73B", "#00BF30", "#006AC6", "#DC1447", "#FF7A81"]
    },
    "Français de l'étranger": {
        "listes": ["RENAISSANCE", "EUROPE ÉCOLOGIE", "UNION DROITE-CENTRE", "PRENEZ LE POUVOIR", "ENVIE D'EUROPE", "LA FRANCE INSOUMISE"],
        "inscrits": 1247127,
        "scores": [36.84, 20.52, 8.33, 7.1, 6.86, 5.17],
        "voix": [82598, 46012, 18684, 15916, 15375, 11583],
        "colors": ["#EAC73B", "#00BF30", "#006AC6", "#003D86", "#FF7A81", "#DC1447"]
    },
    "RENAISSANCE": {
        "color": "#EAC73B",
        "abr": "LREM"
    },
    "DEBOUT LA FRANCE": {
        "color": "#0084BF",
        "abr": "DEBOUT LA FRANCE"
    },
    "PRENEZ LE POUVOIR": {
        "color": "#003D86",
        "abr": "RN"
    },
    "UNION DROITE-CENTRE": {
        "color": "#006AC6",
        "abr": "LR"
    },
    "EUROPE ÉCOLOGIE": {
        "color": "#00BF30",
        "abr": "EELV"
    },
    "LA FRANCE INSOUMISE": {
        "color": "#DC1447",
        "abr": "LFI"
    },
    "ENVIE D'EUROPE": {
        "color": "#FF7A81",
        "abr": "PS"
    },
    "LISTE CITOYENNE": {
        "color": "#DC0056",
        "abr": "G·s"
    },
    "LES EUROPÉENS": {
        "color": "#00FFFE",
        "abr": "UDI"
    },
    "POUR L'EUROPE DES GENS": {
        "color": "#EF001A",
        "abr": "PCF"
    },
    "LUTTE OUVRIÈRE": {
        "color": "#CA0016",
        "abr": "LUTTE OUVRIÈRE"
    },
    "URGENCE ÉCOLOGIE": {
        "color": "#008446",
        "abr": "URGENCE ÉCOLOGIE"
    }
}
